{
	"_id" : "0fy2bix6xo7ml5s4uxfx51",
	"userID" : "0xp3xq07vvmcvbjthtjm4v",
	"productID" : "dbr6nifnz9ogm2zjl7lpun",
	"dateTimeRegistered" : "2020-03-11T15:00:00.00Z",
	"status" : true,
	"total" : 50,
},

{
	"_id" : "adnk8izzioxgufw8q9gcpd",
	"userID" : "up20gvcgdloydekrn8jwan",
	"productID" : "tiptrzalqrxeavwin06ykh",
	"dateTimeRegistered" : "2020-03-15T15:00:00.00Z",
	"status" : true,
	"total" : 150,
},

{
	"_id" : "owkjbbtz8s5r7kskierp4t",
	"userID" : "jcy4437wrwhqq1350hrmbz",
	"productID" : "9fgeiy38t21cfhbs3ynacq",
	"dateTimeRegistered" : "2020-03-20T15:00:00.00Z",
	"status" : true,
	"total" : 80,
}