{
	"_id" : "0xp3xq07vvmcvbjthtjm4v",
	"firstName" : "John",
	"lastName" : "Smith",
	"email" : "johnsmith@gmail.com",
	"password" : "johnhandsome",
	"isAdmin" : false,
	"mobileNumber" : "09123456789"
},

{
	"_id" : "up20gvcgdloydekrn8jwan",
	"firstName" : "Jane",
	"lastName" : "Doe",
	"email" : "janedoe@gmail.com",
	"password" : "janepretty",
	"isAdmin" : true,
	"mobileNumber" : "09987654321"
},

{
	"_id" : "jcy4437wrwhqq1350hrmbz",
	"firstName" : "Darel",
	"lastName" : "Rivas",
	"email" : "heyyoudarel@gmail.com",
	"password" : "heyyoudarel",
	"isAdmin" : false,
	"mobileNumber" : "09162328334"
},