{
	"_id" : "507f1f77bcf86cd799439011",
	"firstName" : "John",
	"lastName" : "Smith",
	"email" : "johnsmith@gmail.com",
	"password" : "johnhandsome",
	"isAdmin" : false,
	"mobileNumber" : "09123456789",
	"enrollments": ["601ccbe89bcd482ee8fa2c99", "507f191e810c19729de860ea"],
	"dateTimeRegistered" : "2020-03-15T15:00:00.00Z"
},

{
	"_id" : "507f1f77bcf86cd799439012",
	"firstName" : "Jane",
	"lastName" : "Deo",
	"email" : "janedoe@zuitt.com",
	"password" : "janepretty",
	"isAdmin" : true,
	"mobileNumber" : "09987654321",
	"enrollments": [],
	"dateTimeRegistered" : "2020-03-16T15:00:00.00Z"
},

{
	"_id" : "507f1f77bcf86cd799439013",
	"firstName" : "Darel",
	"lastName" : "Rivas",
	"email" : "heyyoudarel@.com",
	"password" : "heyyoudarel",
	"isAdmin" : true,
	"mobileNumber" : "09162328334",
	"enrollments": [],
	"dateTimeRegistered" : "2020-03-17T15:00:00.00Z"
}